{
  "page": 1,
  "total_results": 39,
  "total_pages": 2,
  "results": [
    {
      "vote_count": 3260,
      "id": 87101,
      "video": false,
      "vote_average": 5.8,
      "title": "Terminator Genisys",
      "popularity": 11.246399,
      "poster_path": "\/5JU9ytZJyR3zmClGmVm9q4Geqbd.jpg",
      "original_language": "en",
      "original_title": "Terminator Genisys",
      "genre_ids": [
        878,
        28,
        53,
        12
      ],
      "backdrop_path": "\/bIlYH4l2AyYvEysmS2AOfjO7Dn8.jpg",
      "adult": false,
      "overview": "The year is 2029. John Connor, leader of the resistance continues the war against the machines. At the Los Angeles offensive, John's fears of the unknown future begin to emerge when TECOM spies reveal a new plot by SkyNet that will attack him from both fronts; past and future, and will ultimately change warfare forever.",
      "release_date": "2015-06-23"
    },
    {
      "vote_count": 3621,
      "id": 218,
      "video": false,
      "vote_average": 7.3,
      "title": "The Terminator",
      "popularity": 5.838431,
      "poster_path": "\/q8ffBuxQlYOHrvPniLgCbmKK4Lv.jpg",
      "original_language": "en",
      "original_title": "The Terminator",
      "genre_ids": [
        28,
        53,
        878
      ],
      "backdrop_path": "\/6yFoLNQgFdVbA8TZMdfgVpszOla.jpg",
      "adult": false,
      "overview": "In the post-apocalyptic future, reigning tyrannical supercomputers teleport a cyborg assassin known as the \"Terminator\" back to 1984 to kill Sarah Connor, whose unborn son is destined to lead insurgents against 21st century mechanical hegemony. Meanwhile, the human-resistance movement dispatches a lone warrior to safeguard Sarah. Can he stop the virtually indestructible killing machine?",
      "release_date": "1984-10-26"
    },
    {
      "vote_count": 2168,
      "id": 534,
      "video": false,
      "vote_average": 5.9,
      "title": "Terminator Salvation",
      "popularity": 4.59124,
      "poster_path": "\/hxDfhavtxA2Ayx7O9BsQMcZRdG0.jpg",
      "original_language": "en",
      "original_title": "Terminator Salvation",
      "genre_ids": [
        28,
        878,
        53
      ],
      "backdrop_path": "\/u1B48m74vm4UR4iLOI1Hz4NK8Im.jpg",
      "adult": false,
      "overview": "All grown up in post-apocalyptic 2018, John Connor must lead the resistance of humans against the increasingly dominating militaristic robots. But when Marcus Wright appears, his existence confuses the mission as Connor tries to determine whether Wright has come from the future or the past -- and whether he's friend or foe.",
      "release_date": "2009-05-20"
    },
    {
      "vote_count": 3664,
      "id": 280,
      "video": false,
      "vote_average": 7.7,
      "title": "Terminator 2: Judgment Day",
      "popularity": 5.432617,
      "poster_path": "\/2y4dmgWYRMYXdD1UyJVcn2HSd1D.jpg",
      "original_language": "en",
      "original_title": "Terminator 2: Judgment Day",
      "genre_ids": [
        28,
        53,
        878
      ],
      "backdrop_path": "\/d9AqtruwS8nljKjL5aYzM42hQJr.jpg",
      "adult": false,
      "overview": "Nearly 10 years have passed since Sarah Connor was targeted for termination by a cyborg from the future. Now her son, John, the future leader of the resistance, is the target for a newer, more deadly terminator. Once again, the resistance has managed to send a protector back to attempt to save John and his mother Sarah.",
      "release_date": "1991-07-01"
    },
    {
      "vote_count": 4,
      "id": 290859,
      "video": false,
      "vote_average": 9.5,
      "title": "Untitled Terminator Sequel",
      "popularity": 2.72914,
      "poster_path": null,
      "original_language": "en",
      "original_title": "Untitled Terminator Sequel",
      "genre_ids": [
        878,
        28
      ],
      "backdrop_path": null,
      "adult": false,
      "overview": "Sequel to James Cameron's films, and the final film in the franchise. 6th film in total.",
      "release_date": ""
    },
    {
      "vote_count": 1834,
      "id": 296,
      "video": false,
      "vote_average": 5.9,
      "title": "Terminator 3: Rise of the Machines",
      "popularity": 4.743392,
      "poster_path": "\/lz4xYdF1n09lyiCfZWtWT44SZiG.jpg",
      "original_language": "en",
      "original_title": "Terminator 3: Rise of the Machines",
      "genre_ids": [
        28,
        53,
        878
      ],
      "backdrop_path": "\/tMhvihszpLbOjj7mJSTW7bgQbIc.jpg",
      "adult": false,
      "overview": "It's been 10 years since John Connor saved Earth from Judgment Day, and he's now living under the radar, steering clear of using anything Skynet can trace. That is, until he encounters T-X, a robotic assassin ordered to finish what T-1000 started. Good thing Connor's former nemesis, the Terminator, is back to aid the now-adult Connor … just like he promised.",
      "release_date": "2003-07-02"
    },
    {
      "vote_count": 11,
      "id": 282659,
      "video": false,
      "vote_average": 3.5,
      "title": "Perfect: Android Rising",
      "popularity": 1.130669,
      "poster_path": "\/uPnPoFpjp9mGql84TPCkrdeLqKB.jpg",
      "original_language": "en",
      "original_title": "Perfect: Android Rising",
      "genre_ids": [
        18,
        878
      ],
      "backdrop_path": "\/nQk6qnJgHe2xzT8OQs7Z9yfHWpf.jpg",
      "adult": false,
      "overview": "The perfect killing machine is reprogrammed to think and feel.",
      "release_date": "2013-06-14"
    },
    {
      "vote_count": 7,
      "id": 40027,
      "video": false,
      "vote_average": 7.3,
      "title": "Ninja Terminator",
      "popularity": 1.036785,
      "poster_path": "\/ls7BqOyOusaFSjegFPOOnjymaII.jpg",
      "original_language": "en",
      "original_title": "Ninja Terminator",
      "genre_ids": [
        28
      ],
      "backdrop_path": "\/vKxXCxrOJp0e3kS4J84RO7JKe6x.jpg",
      "adult": false,
      "overview": "Three martial-arts students search for the Golden Ninja Warrior, a statue reputed to have magic powers. Ninja mayhem by Godfrey Ho intercut with multiple scenes from Stafferyui Bulcheonggaek http:\/\/www.themoviedb.org\/movie\/312755-stafferyui-bulcheonggaek?language=en.",
      "release_date": "1985-01-01"
    },
    {
      "vote_count": 2,
      "id": 72690,
      "video": false,
      "vote_average": 5.5,
      "title": "Capital Punishment",
      "popularity": 1.008595,
      "poster_path": "\/2VF5lz549P2XNOcCKmd6Zde6mqz.jpg",
      "original_language": "en",
      "original_title": "Capital Punishment",
      "genre_ids": [
        28,
        53
      ],
      "backdrop_path": null,
      "adult": false,
      "overview": "Deadliest Hands of Kung Fu, longest arm of the law",
      "release_date": "1991-12-21"
    },
    {
      "vote_count": 2,
      "id": 133360,
      "video": false,
      "vote_average": 2,
      "title": "Alien Terminator",
      "popularity": 1.002907,
      "poster_path": "\/9snpbaIprFQZFDlL65iXVTMhkpy.jpg",
      "original_language": "en",
      "original_title": "Alien Terminator",
      "genre_ids": [
        878,
        27
      ],
      "backdrop_path": null,
      "adult": false,
      "overview": "Five miles below the Earth's surface, a group of scientists is working in self-imposed isolation, perfecting a series of DNA experiments that could literally change the world. But when one of those experiments goes awry, it unleashes a nearly immortal organism--one capable of instant regeneration, and with an insatiable appetite for living flesh. Soon, nothing can contain the creature, and with the lab's life support systems quickly shutting down, the scientists grimly prepare for their final battle...  A small group of scientists are working in self-imposed isolation below the Earth's surface. They are all working to create DNA which could change the world, but one of the scientists have been given an secret assignment, and when the assignment goes wrong, all hell breaks lose. The new creation is now aboard the ship and will destroy anyone who gets in its way, as it moves towards the surface.",
      "release_date": "1996-10-09"
    },
    {
      "vote_count": 4,
      "id": 55459,
      "video": false,
      "vote_average": 3.5,
      "title": "Terminator Woman",
      "popularity": 1.000687,
      "poster_path": "\/eGAxBO3RuDgkbxv9ul03SSjkiOO.jpg",
      "original_language": "en",
      "original_title": "Terminator Woman",
      "genre_ids": [
        28,
        53
      ],
      "backdrop_path": "\/1XUlcxkhD9kEJqeloQgZ6dgCwaM.jpg",
      "adult": false,
      "overview": "Two LA cops, Julie and Jay, must return Marsalas to Africa to stand trial as the chief state witness against international villain Alex Gatelee. Gatelee, into everything from gold smuggling to female slave trade, hijacks the party. In a vicious shoot out Julie and Jay overcome Gatelee's men. Gatelee then has Julie kidnapped from one of his nightclubs. He tries to use Julie as bait to get Jay to hand over Marsalas in exchange for Julie...",
      "release_date": "1993-06-30"
    },
    {
      "vote_count": 0,
      "id": 290688,
      "video": false,
      "vote_average": 0,
      "title": "Korean Terminator",
      "popularity": 1.000015,
      "poster_path": "\/8J5QEyXlnwsIyjiEHqNo9bos1th.jpg",
      "original_language": "en",
      "original_title": "Korean Terminator",
      "genre_ids": [
        878,
        28
      ],
      "backdrop_path": null,
      "adult": false,
      "overview": "A Korean riff on The Terminator.",
      "release_date": "1992-12-31"
    },
    {
      "vote_count": 1,
      "id": 86223,
      "video": false,
      "vote_average": 8,
      "title": "Russian Terminator",
      "popularity": 1.000009,
      "poster_path": "\/qDNIpx3Tjm6Bx1kyqL6ZXBXNFNF.jpg",
      "original_language": "en",
      "original_title": "Russian Terminator",
      "genre_ids": [
        28
      ],
      "backdrop_path": "\/2DBLJXPOn5zSmU5H6ctee0PPz69.jpg",
      "adult": false,
      "overview": "An ex-mercenary is enlisted back into the life to rescue the boyfriend of the daughter of a powerful mogul.",
      "release_date": "1989-12-12"
    },
    {
      "vote_count": 10,
      "id": 61904,
      "video": false,
      "vote_average": 5.6,
      "title": "Lady Terminator",
      "popularity": 1.034641,
      "poster_path": "\/oyUrhAggD7y1h2D7PEQm0AkIRFt.jpg",
      "original_language": "id",
      "original_title": "Pembalasan ratu pantai selatan",
      "genre_ids": [
        10769,
        27,
        28
      ],
      "backdrop_path": "\/aHl3Fc7C1NQhAzThqhybs2Yzw7X.jpg",
      "adult": false,
      "overview": "The spirit of an ancient evil queen posesses the body of a young anthropological student, who then goes on a murderous rampage.",
      "release_date": "1989-06-10"
    },
    {
      "vote_count": 0,
      "id": 353425,
      "video": false,
      "vote_average": 0,
      "title": "Boyong Mañalac, Hoodlum Terminator",
      "popularity": 1.212044,
      "poster_path": null,
      "original_language": "en",
      "original_title": "Boyong Mañalac, Hoodlum Terminator",
      "genre_ids": [
        18,
        28,
        80
      ],
      "backdrop_path": null,
      "adult": false,
      "overview": "He used to be an outlaw. Now, he is feared by the criminals.  Follow this action-filled chapter in the life of Boyong Manalac and witness how he terminates the notorious hoodlums one by one in cold blood.  Starring Eddie Garcia, as the hoodlum turned cop. Also stars Edu Manzano, John Regala, Marta Sonano and Pinky De Leon. Eddie Rodriguez directs.",
      "release_date": "1991-06-20"
    },
    {
      "vote_count": 0,
      "id": 390375,
      "video": false,
      "vote_average": 0,
      "title": "Batman vs. Terminator",
      "popularity": 1.011897,
      "poster_path": "\/wRu8bpVkWuVvZVU9MVbZd6ZTXGs.jpg",
      "original_language": "en",
      "original_title": "Batman vs. Terminator",
      "genre_ids": [],
      "backdrop_path": null,
      "adult": false,
      "overview": "Batman fights Terminator. In Stop-motion.",
      "release_date": "2016-03-22"
    },
    {
      "vote_count": 6,
      "id": 66664,
      "video": false,
      "vote_average": 5.8,
      "title": "Shocking Dark",
      "popularity": 1.067323,
      "poster_path": "\/oLUHYgC2jHZJ8ap9FMrLacyrYaG.jpg",
      "original_language": "it",
      "original_title": "Shocking Dark",
      "genre_ids": [
        28,
        878
      ],
      "backdrop_path": "\/n9zt7jS3VZgOiGFHbxYKWdsqDnD.jpg",
      "adult": false,
      "overview": "In a polluted future Venice researchers work to improve the situation. One day, unknown forces start killing them. A team of soldiers and a couple of civilians is sent to investigate. Soon, they encounter strange murderous creatures.",
      "release_date": "1990-08-22"
    },
    {
      "vote_count": 3,
      "id": 233341,
      "video": false,
      "vote_average": 3.2,
      "title": "Terminator the Second",
      "popularity": 1.00863,
      "poster_path": "\/2BZnKpz3Sq9FzqE1K1eVGbAZvdP.jpg",
      "original_language": "en",
      "original_title": "Terminator the Second",
      "genre_ids": [
        28,
        878,
        53
      ],
      "backdrop_path": "\/v3hhlrg6OiS0HasLEO7mJjtwBK3.jpg",
      "adult": false,
      "overview": "Terminator the Second is the premiere production of the Nashville performance collective, Husky Jackal Theater. A product of nearly a year of research and revision, the script tells the story of a boy and his cyborg protector entirely in lines and phrases taken from the plays of William Shakespeare. Each line and phrase is taken from original folios, with only proper nouns, pronouns and corresponding verb tenses subject to change. In doing so, the authors were able to accurately recreate the story of Terminator 2: Judgement Day, while remaining true to the words of Shakespeare in form, if less so in intent.",
      "release_date": "2013-11-01"
    },
    {
      "vote_count": 3,
      "id": 222148,
      "video": false,
      "vote_average": 5.3,
      "title": "Terminator: Salvation The Machinima Series",
      "popularity": 1.142632,
      "poster_path": "\/cBSwj2irN3MuYxNVTQBzitLtgQK.jpg",
      "original_language": "en",
      "original_title": "Terminator: Salvation The Machinima Series",
      "genre_ids": [
        16,
        28,
        12
      ],
      "backdrop_path": null,
      "adult": false,
      "overview": "In the Year 2016, Resistance fighter Blair Williams embarks on a deadly mission to search for a threat that is weakening humanity's defense against the self-aware artificial intelligence called Skynet and it's lethal Terminators.",
      "release_date": "2009-05-18"
    },
    {
      "vote_count": 1,
      "id": 257256,
      "video": false,
      "vote_average": 6,
      "title": "Batman vs. The Terminator",
      "popularity": 1.019902,
      "poster_path": "\/4cwg5spYeQXw2zQSZCRJGoz38e8.jpg",
      "original_language": "en",
      "original_title": "Batman vs. The Terminator",
      "genre_ids": [
        16
      ],
      "backdrop_path": null,
      "adult": false,
      "overview": "30 years have passed since Bruce Wayne survived Skynet's nuclear blasts in August of '97. Iron demons now roam the planet, and without the requirement to defend the innocent against crime and injustice, Wayne has seeked refuge in the bomb shelter that saved his life; the Batcave.  Having scavenged the wasteland for resources, he discovers the radio of a dead soldier. There is static over a frequency. Flesh and blood is rising up to the west. With The Stinger; a riot control vehicular unit built before the apocalypse along with a refitted bomb blast vest, Batman makes his way across what remains of the United States to join forces with the man determined to neutralize the electronic menace - John Conner.",
      "release_date": "2014-02-22"
    }
  ]
}